[gd_scene load_steps=6 format=2]

[ext_resource path="res://Main.gd" type="Script" id=1]
[ext_resource path="res://Mob.tscn" type="PackedScene" id=2]
[ext_resource path="res://Player.tscn" type="PackedScene" id=3]
[ext_resource path="res://HUD.tscn" type="PackedScene" id=4]

[sub_resource type="Curve2D" id=1]
_data = {
"points": PoolVector2Array( 0, 0, 0, 0, 10, 10, 0, 0, 0, 0, 470, 10, 0, 0, 0, 0, 470, 710, 0, 0, 0, 0, 10, 710, 0, 0, 0, 0, 10, 10 )
}

[node name="Main" type="Node"]
script = ExtResource( 1 )
Mob = ExtResource( 2 )

[node name="Player" parent="." instance=ExtResource( 3 )]
position = Vector2( -92.5309, 44.4148 )

[node name="MobTimer" type="Timer" parent="."]

[node name="ScoreTimer" type="Timer" parent="."]

[node name="StartTimer" type="Timer" parent="."]
wait_time = 2.0
one_shot = true

[node name="StartPosition" type="Position2D" parent="."]
position = Vector2( 254.011, 559.517 )

[node name="MobPath" type="Path2D" parent="."]
curve = SubResource( 1 )
__meta__ = {
"_edit_lock_": true
}

[node name="MobSpawnLocation" type="PathFollow2D" parent="MobPath"]
position = Vector2( 10, 10 )

[node name="HUD" parent="." instance=ExtResource( 4 )]

[connection signal="hit" from="Player" to="." method="game_over"]
[connection signal="timeout" from="MobTimer" to="." method="_on_MobTimer_timeout"]
[connection signal="timeout" from="ScoreTimer" to="." method="_on_ScoreTimer_timeout"]
[connection signal="timeout" from="StartTimer" to="." method="_on_StartTimer_timeout"]
[connection signal="start_game" from="HUD" to="." method="game_start"]
