[gd_scene load_steps=5 format=2]

[ext_resource path="res://Player.gd" type="Script" id=1]
[ext_resource path="res://assets/soldier.png" type="Texture" id=2]

[sub_resource type="SpriteFrames" id=1]
animations = [ {
"frames": [ ExtResource( 2 ) ],
"loop": true,
"name": "default",
"speed": 5.0
} ]

[sub_resource type="CapsuleShape2D" id=2]
radius = 19.7035
height = 64.6666

[node name="Player" type="KinematicBody2D"]
position = Vector2( 23.6207, 0.814514 )
script = ExtResource( 1 )
__meta__ = {
"_edit_group_": true
}

[node name="AnimatedSprite" type="AnimatedSprite" parent="."]
position = Vector2( 8.72853, 0 )
rotation = 1.5708
scale = Vector2( 0.2, 0.2 )
frames = SubResource( 1 )

[node name="BodyShape" type="CollisionShape2D" parent="."]
position = Vector2( -22.9768, -2.26213 )
shape = SubResource( 2 )

[node name="GunPosition" type="Position2D" parent="."]
position = Vector2( 82.6671, -2.20109 )

[node name="Camera2D" type="Camera2D" parent="."]
current = true
zoom = Vector2( 3, 3 )

[node name="GunRay" type="RayCast2D" parent="."]
position = Vector2( 83.8941, -2.44353 )
enabled = true
cast_to = Vector2( 5000, 0 )

[node name="GunTimer" type="Timer" parent="."]
wait_time = 0.3
one_shot = true

